{
	"info": {
		"_postman_id": "002fca0a-c173-460e-8a41-929db57a7a7e",
		"name": "Capstone 2 (E-commerce API)",
		"description": "# 🧪 Get started here\n\nThis template helps ensure your API continues to work as expected after updates or changes. It contains sample requests for a series of tests that validate different aspects of an API, including:\n\n1. **Status code verification:** We'll check if the API returns the expected status codes for various requests, ensuring reliability and proper error handling.\n2. **JSON schema verification:** We'll make sure the JSON response conforms to a specified JSON Schema, ensuring API contracts are honored.\n3. **Response time verification:** We'll verify that the API's response time is within the acceptable range, providing a smooth user experience and optimizing performance.\n4. **Response body verification:** We'll validate the structure and content of the response body for accuracy, ensuring the integrity of the data and preventing potential issues downstream.\n5. **Header verification:** We'll confirm the presence and correct values of specific headers in the response, enabling secure and well-structured communication between your app and its users.\n    \n\n## 🔖 **How to use this template**\n\n**Step 1:** Send the sample requests and view the response and test results.\n\n**Step 2:** Replace the sample request URLs with your desired API endpoints.\n\n**Step 3:** Customize the tests in the \"Tests\" tab if needed. Don't forget to save your changes.\n\n**Step 4:** Run the collection by selecting \"Run\".\n\n<img src=\"https://content.pstmn.io/666cfa65-6e00-4308-871b-f831128bc0ac/Y29sbGVjdGlvbi1ydW5uZXItYnV0dG9uLmpwZWc=\" width=\"246\" height=\"102\">\n\n### ℹ️ Resources\n\n[Scripting in Postman](https://learning.postman.com/docs/writing-scripts/intro-to-scripts/)\n\n[Test script examples](https://learning.postman.com/docs/writing-scripts/script-references/test-examples/)\n\n[Postman Sandbox API reference](https://learning.postman.com/docs/sending-requests/grpc/postman-sandbox-api/#writing-assertions)\n\n[Using the Collection Runner](https://learning.postman.com/docs/collections/running-collections/intro-to-collection-runs/)",
		"schema": "https://schema.getpostman.com/json/collection/v2.1.0/collection.json",
		"_exporter_id": "27193803"
	},
	"item": [
		{
			"name": "post userReg",
			"request": {
				"method": "POST",
				"header": [],
				"body": {
					"mode": "raw",
					"raw": "{\r\n    \"firstName\" : \"kinley\",\r\n    \"lastName\" : \"bendecio\",\r\n    \"email\" : \"kin@gmail.com\",\r\n    \"password\" : \"123456\",\r\n    \"mobileNumber\" : \"09123456789\"\r\n}",
					"options": {
						"raw": {
							"language": "json"
						}
					}
				},
				"url": {
					"raw": "http://localhost:4001/users/registration",
					"protocol": "http",
					"host": [
						"localhost"
					],
					"port": "4001",
					"path": [
						"users",
						"registration"
					]
				}
			},
			"response": []
		},
		{
			"name": "get loginUser",
			"protocolProfileBehavior": {
				"disableBodyPruning": true
			},
			"request": {
				"method": "GET",
				"header": [],
				"body": {
					"mode": "raw",
					"raw": "{\r\n    \"email\" : \"admin@gmail.com\",\r\n    \"password\": \"admin\"\r\n}",
					"options": {
						"raw": {
							"language": "json"
						}
					}
				},
				"url": {
					"raw": "http://localhost:4001/users/login",
					"protocol": "http",
					"host": [
						"localhost"
					],
					"port": "4001",
					"path": [
						"users",
						"login"
					]
				}
			},
			"response": []
		},
		{
			"name": "post addProducts (admin)",
			"request": {
				"auth": {
					"type": "bearer",
					"bearer": [
						{
							"key": "token",
							"value": "eyJhbGciOiJIUzI1NiIsInR5cCI6IkpXVCJ9.eyJpZCI6IjY0N2M2N2FlNWZlYzdkMDIwZWE4YzAyNSIsImlzQWRtaW4iOnRydWUsImVtYWlsIjoiYWRtaW5AZ21haWwuY29tIiwiaWF0IjoxNjg1ODgxODI1fQ.DLhY8vEfjnLILICyX8SXxEeCRGOsnfFyXAl-FrQhytU",
							"type": "string"
						}
					]
				},
				"method": "POST",
				"header": [],
				"body": {
					"mode": "raw",
					"raw": "{\r\n    \"name\": \"Poco X5 Pro 5G\",\r\n    \"description\": \"The POCO X5 Pro 5G is a mid-range smartphone that features a 6.67-inch FHD+ Flow AMOLED display with a 120Hz screen refresh rate, 108MP + 8MP + 2MP triple rear cameras, and a 16MP selfie camera. It runs on a Qualcomm Snapdragon 778G chipset with either 6GB or 8GB of RAM, Android 13 OS, and the MIUI 14 for POCO interface. There's also a side-mounted fingerprint scanner, 5G connectivity, dual-band Wi-Fi, infrared remote control function, stereo dual speakers, and either 128GB or 256GB of internal storage. A large 5000mAh battery powers the device with support for 67W Turbo charging technology.\",\r\n    \"price\": 18999,\r\n    \"qty\" : 29\r\n}",
					"options": {
						"raw": {
							"language": "json"
						}
					}
				},
				"url": {
					"raw": "http://localhost:4001/products/addProducts",
					"protocol": "http",
					"host": [
						"localhost"
					],
					"port": "4001",
					"path": [
						"products",
						"addProducts"
					]
				}
			},
			"response": []
		},
		{
			"name": "get allProducts (admin)",
			"request": {
				"auth": {
					"type": "bearer",
					"bearer": [
						{
							"key": "token",
							"value": "eyJhbGciOiJIUzI1NiIsInR5cCI6IkpXVCJ9.eyJpZCI6IjY0N2M2N2FlNWZlYzdkMDIwZWE4YzAyNSIsImlzQWRtaW4iOnRydWUsImVtYWlsIjoiYWRtaW5AZ21haWwuY29tIiwiaWF0IjoxNjg2MDQzMjIyfQ.j414T9URfCYqX_QfzBpQbRklY9ZPw2PGY3ZkCdWJnFE",
							"type": "string"
						}
					]
				},
				"method": "GET",
				"header": [],
				"url": {
					"raw": "http://localhost:4001/products/",
					"protocol": "http",
					"host": [
						"localhost"
					],
					"port": "4001",
					"path": [
						"products",
						""
					]
				}
			},
			"response": []
		},
		{
			"name": "get activeProducts",
			"request": {
				"method": "GET",
				"header": [],
				"url": {
					"raw": "http://localhost:4001/products/activeProducts",
					"protocol": "http",
					"host": [
						"localhost"
					],
					"port": "4001",
					"path": [
						"products",
						"activeProducts"
					]
				}
			},
			"response": []
		},
		{
			"name": "get specificProduct",
			"request": {
				"method": "GET",
				"header": [],
				"url": {
					"raw": "http://localhost:4001/products/647ee9e35b6420eaf55b9802",
					"protocol": "http",
					"host": [
						"localhost"
					],
					"port": "4001",
					"path": [
						"products",
						"647ee9e35b6420eaf55b9802"
					]
				}
			},
			"response": []
		},
		{
			"name": "patch updateProduct (admin)",
			"request": {
				"auth": {
					"type": "bearer",
					"bearer": [
						{
							"key": "token",
							"value": "eyJhbGciOiJIUzI1NiIsInR5cCI6IkpXVCJ9.eyJpZCI6IjY0N2M2N2FlNWZlYzdkMDIwZWE4YzAyNSIsImlzQWRtaW4iOnRydWUsImVtYWlsIjoiYWRtaW5AZ21haWwuY29tIiwiaWF0IjoxNjg1ODgxODI1fQ.DLhY8vEfjnLILICyX8SXxEeCRGOsnfFyXAl-FrQhytU",
							"type": "string"
						}
					]
				},
				"method": "PATCH",
				"header": [],
				"body": {
					"mode": "raw",
					"raw": "{\r\n    \"name\" : \"Poco X3 Pro\",\r\n    \"qty\" : \"40\"\r\n}",
					"options": {
						"raw": {
							"language": "json"
						}
					}
				},
				"url": {
					"raw": "http://localhost:4001/products/647ee9e35b6420eaf55b9802",
					"protocol": "http",
					"host": [
						"localhost"
					],
					"port": "4001",
					"path": [
						"products",
						"647ee9e35b6420eaf55b9802"
					]
				}
			},
			"response": []
		},
		{
			"name": "patch updateStatus (admin)",
			"request": {
				"auth": {
					"type": "bearer",
					"bearer": [
						{
							"key": "token",
							"value": "eyJhbGciOiJIUzI1NiIsInR5cCI6IkpXVCJ9.eyJpZCI6IjY0N2M2N2FlNWZlYzdkMDIwZWE4YzAyNSIsImlzQWRtaW4iOnRydWUsImVtYWlsIjoiYWRtaW5AZ21haWwuY29tIiwiaWF0IjoxNjg1ODgxODI1fQ.DLhY8vEfjnLILICyX8SXxEeCRGOsnfFyXAl-FrQhytU",
							"type": "string"
						}
					]
				},
				"method": "PATCH",
				"header": [],
				"body": {
					"mode": "raw",
					"raw": "{\r\n    \"isActive\": true\r\n}",
					"options": {
						"raw": {
							"language": "json"
						}
					}
				},
				"url": {
					"raw": "http://localhost:4001/products/647eeaa55b6420eaf55b9808/updateStatus",
					"protocol": "http",
					"host": [
						"localhost"
					],
					"port": "4001",
					"path": [
						"products",
						"647eeaa55b6420eaf55b9808",
						"updateStatus"
					]
				}
			},
			"response": []
		},
		{
			"name": "post order (non-admin)",
			"request": {
				"auth": {
					"type": "bearer",
					"bearer": [
						{
							"key": "token",
							"value": "eyJhbGciOiJIUzI1NiIsInR5cCI6IkpXVCJ9.eyJpZCI6IjY0N2VmOGIyMTk3YTg1MTdmNDdlZWU4MCIsImlzQWRtaW4iOmZhbHNlLCJlbWFpbCI6ImtpbkBnbWFpbC5jb20iLCJpYXQiOjE2ODYwNDI4MDl9.F0Fnb4HtTjRNWvLqz1t68iqKGFn3GwicaqRzBO_IMw8",
							"type": "string"
						}
					]
				},
				"method": "POST",
				"header": [],
				"body": {
					"mode": "raw",
					"raw": "{\r\n    \r\n    \"product\" : {\r\n        \"qty\": 3\r\n        }\r\n}",
					"options": {
						"raw": {
							"language": "json"
						}
					}
				},
				"url": {
					"raw": "http://localhost:4001/orders/647ee9e35b6420eaf55b9802",
					"protocol": "http",
					"host": [
						"localhost"
					],
					"port": "4001",
					"path": [
						"orders",
						"647ee9e35b6420eaf55b9802"
					]
				}
			},
			"response": []
		},
		{
			"name": "get userData (non-admin)",
			"request": {
				"auth": {
					"type": "bearer",
					"bearer": [
						{
							"key": "token",
							"value": "eyJhbGciOiJIUzI1NiIsInR5cCI6IkpXVCJ9.eyJpZCI6IjY0N2VmOGIyMTk3YTg1MTdmNDdlZWU4MCIsImlzQWRtaW4iOmZhbHNlLCJlbWFpbCI6ImtpbkBnbWFpbC5jb20iLCJpYXQiOjE2ODYwNDI4MDl9.F0Fnb4HtTjRNWvLqz1t68iqKGFn3GwicaqRzBO_IMw8",
							"type": "string"
						}
					]
				},
				"method": "GET",
				"header": [],
				"url": {
					"raw": "http://localhost:4001/users/userInfo",
					"protocol": "http",
					"host": [
						"localhost"
					],
					"port": "4001",
					"path": [
						"users",
						"userInfo"
					]
				}
			},
			"response": []
		},
		{
			"name": "get makeAdmin (admin)",
			"request": {
				"auth": {
					"type": "bearer",
					"bearer": [
						{
							"key": "token",
							"value": "eyJhbGciOiJIUzI1NiIsInR5cCI6IkpXVCJ9.eyJpZCI6IjY0N2M2N2FlNWZlYzdkMDIwZWE4YzAyNSIsImlzQWRtaW4iOnRydWUsImVtYWlsIjoiYWRtaW5AZ21haWwuY29tIiwiaWF0IjoxNjg2MTA4NzUxfQ.j1bdI8nQp8F4UR5RQTwWhTFBzdVgNZ1ukff0YY2rNIY",
							"type": "string"
						}
					]
				},
				"method": "PATCH",
				"header": [],
				"body": {
					"mode": "raw",
					"raw": "{\r\n    \"isAdmin\": false\r\n}",
					"options": {
						"raw": {
							"language": "json"
						}
					}
				},
				"url": {
					"raw": "http://localhost:4001/users/647ef8b2197a8517f47eee80/makeAdmin",
					"protocol": "http",
					"host": [
						"localhost"
					],
					"port": "4001",
					"path": [
						"users",
						"647ef8b2197a8517f47eee80",
						"makeAdmin"
					]
				}
			},
			"response": []
		},
		{
			"name": "get allOrder",
			"request": {
				"auth": {
					"type": "bearer",
					"bearer": [
						{
							"key": "token",
							"value": "eyJhbGciOiJIUzI1NiIsInR5cCI6IkpXVCJ9.eyJpZCI6IjY0N2M2N2FlNWZlYzdkMDIwZWE4YzAyNSIsImlzQWRtaW4iOnRydWUsImVtYWlsIjoiYWRtaW5AZ21haWwuY29tIiwiaWF0IjoxNjg2MTA4NzUxfQ.j1bdI8nQp8F4UR5RQTwWhTFBzdVgNZ1ukff0YY2rNIY",
							"type": "string"
						}
					]
				},
				"method": "GET",
				"header": [],
				"url": {
					"raw": "http://localhost:4001/orders/allOrder",
					"protocol": "http",
					"host": [
						"localhost"
					],
					"port": "4001",
					"path": [
						"orders",
						"allOrder"
					]
				}
			},
			"response": []
		}
	],
	"event": [
		{
			"listen": "prerequest",
			"script": {
				"type": "text/javascript",
				"exec": [
					""
				]
			}
		},
		{
			"listen": "test",
			"script": {
				"type": "text/javascript",
				"exec": [
					""
				]
			}
		}
	],
	"variable": [
		{
			"key": "baseUrl",
			"value": "https://postman-echo.com"
		}
	]
}